<svg width="146" height="90" viewBox="0 0 146 90" fill="none" xmlns="http://www.w3.org/2000/svg">
<path fill-rule="evenodd" clip-rule="evenodd" d="M127.941 1.37695C127.171 0.0436188 125.247 0.0436208 124.477 1.37695L119.706 9.64062H8.37402C3.95575 9.64062 0.374023 13.2223 0.374023 17.6406V81.6406C0.374023 86.0589 3.95575 89.6406 8.37403 89.6406H137.374C141.792 89.6406 145.374 86.0589 145.374 81.6406V17.6406C145.374 13.2223 141.792 9.64062 137.374 9.64062H132.712L127.941 1.37695Z" fill="white"/>
</svg>
